{
    "current_page": 1,
    "data": [
        {
            "uni-id": 16763,
            "uni-name": "International University of Monaco",
            "en-name": null,
            "abr": "IUM",
            "country_id": 492,
            "city": "",
            "address": "14 Rue Hubert Clerissi, Le Stella",
            "description": "80+ different nationalities represented in the student body and faculty. We are a melting pot of ideas, energy and influences. Richly diverse, vibrant, and connected experience are guaranteed.",
            "uni-tel": "",
            "uni-pic": "https://s3-eu-west-1.amazonaws.com/justbookrbucket/images/Unis/MonacoPort.jpg",
            "uni-logo": "https://pbs.twimg.com/profile_images/936233627884584960/ELidk2xe_400x400.jpg",
            "uni-lon": null,
            "url": "http://www.monaco.edu",
            "users_count": 276,
            "country": {
                "id": 492,
                "iso2": "MC",
                "iso3": "MCO",
                "name": "Monaco",
                "currency": "€",
                "currency_iso": "EUR"
            }
        },
        {
            "uni-id": 9573,
            "uni-name": "Hotelschool the Hague",
            "en-name": "Hotelschool Den Haag",
            "abr": "HTH",
            "country_id": 528,
            "city": "South Holland",
            "address": "Brusselselaan 2, 2587 AH South Holland",
            "description": "Welcome, at the Heart of Hospitality. Hotelschool The Hague hospitality business school – The Netherlands.",
            "uni-tel": "070-35 12 481",
            "uni-pic": null,
            "uni-logo": "https://s3-eu-west-1.amazonaws.com/justbookrbucket/images/Unis/l_c1b9484299d0870e1baa929318b02a26-2.jpg",
            "uni-lon": null,
            "url": "http://hotelschool.nl",
            "users_count": 27,
            "country": {
                "id": 528,
                "iso2": "NL",
                "iso3": "NLD",
                "name": "Netherlands",
                "currency": "€",
                "currency_iso": "EUR"
            }
        },
        {
            "uni-id": 16777,
            "uni-name": "Erasmus University College",
            "en-name": null,
            "abr": "EUC",
            "country_id": 528,
            "city": "Rotterdam",
            "address": "Nieuwemarkt 1A, 3011 HP Rotterdam, Netherlands",
            "description": "",
            "uni-tel": null,
            "uni-pic": "https://www.eur.nl/sites/corporate/files/styles/open_graph/public/2017-11/banner2_2.png?h=e1d6ac5f&itok=_SEgYG5x",
            "uni-logo": "https://upload.wikimedia.org/wikipedia/commons/thumb/0/0a/Logo_Erasmus_Universiteit_Rotterdam.svg/1472px-Logo_Erasmus_Universiteit_Rotterdam.svg.png",
            "uni-lon": null,
            "url": "https://www.eur.nl/en/euc/",
            "users_count": 16,
            "country": {
                "id": 528,
                "iso2": "NL",
                "iso3": "NLD",
                "name": "Netherlands",
                "currency": "€",
                "currency_iso": "EUR"
            }
        },
        {
            "uni-id": 17763,
            "uni-name": "University of Surrey",
            "en-name": "",
            "abr": "",
            "country_id": 826,
            "city": "South East England",
            "address": "Senate House, Stag Hill Campus, GU2 7XH South East England",
            "description": "",
            "uni-tel": null,
            "uni-pic": "",
            "uni-logo": "https://www.4icu.org/i/logos-seals/4815.png",
            "uni-lon": null,
            "url": "http://www.surrey.ac.uk",
            "users_count": 16,
            "country": {
                "id": 826,
                "iso2": "GB",
                "iso3": "GBR",
                "name": "Great Britain",
                "currency": "£",
                "currency_iso": "GBP"
            }
        },
        {
            "uni-id": 4685,
            "uni-name": "SKEMA Sophia Antipolis",
            "en-name": "SKEMA Business School",
            "abr": "SKEMA",
            "country_id": 250,
            "city": null,
            "address": null,
            "description": null,
            "uni-tel": null,
            "uni-pic": null,
            "uni-logo": "https://www.groupeiscae.ma/wp-content/uploads/2018/01/skema.jpg",
            "uni-lon": null,
            "url": "http://www.ceram.fr/",
            "users_count": 7,
            "country": {
                "id": 250,
                "iso2": "FR",
                "iso3": "FRA",
                "name": "France",
                "currency": "€",
                "currency_iso": "EUR"
            }
        },
        {
            "uni-id": 8888,
            "uni-name": "Monash University Malaysia",
            "en-name": null,
            "abr": "Monash",
            "country_id": 458,
            "city": "Selangor",
            "address": "Jalan Lagoon Selatan, Bandar Sunway, 47500 Subang Jaya, Selangor",
            "description": null,
            "uni-tel": null,
            "uni-pic": null,
            "uni-logo": "https://www.monash.edu.my/__data/assets/git_bridge/0006/509343/deploy/mysource_files/monash-logo-mono.svg",
            "uni-lon": null,
            "url": "http://www.monash.edu.my/",
            "users_count": 6,
            "country": {
                "id": 458,
                "iso2": "MY",
                "iso3": "MYS",
                "name": "Malaysia",
                "currency": " RM ",
                "currency_iso": "MYR"
            }
        },
        {
            "uni-id": 2423,
            "uni-name": "George Brown College",
            "en-name": null,
            "abr": "",
            "country_id": 124,
            "city": null,
            "address": null,
            "description": " Where job skills meet people skills. Earn bachelor's degrees, diplomas and certificates at George Brown College, located in downtown Toronto.",
            "uni-tel": null,
            "uni-pic": "",
            "uni-logo": "https://www.georgebrown.ca/homefinal/GBC/images/logo.gif",
            "uni-lon": null,
            "url": "https://www.georgebrown.ca/",
            "users_count": 4,
            "country": {
                "id": 124,
                "iso2": "CA",
                "iso3": "CAN",
                "name": "Canada",
                "currency": "$",
                "currency_iso": "CAD"
            }
        },
        {
            "uni-id": 13657,
            "uni-name": "Central Washington University",
            "en-name": null,
            "abr": "CWU",
            "country_id": 840,
            "city": "Washington",
            "address": "400 East University Way, 98926-7463 Washington",
            "description": "",
            "uni-tel": "",
            "uni-pic": "",
            "uni-logo": "https://upload.wikimedia.org/wikipedia/en/3/33/Wordmark-of-Central-Washington-University.png",
            "uni-lon": null,
            "url": "http://www.cwu.edu",
            "users_count": 4,
            "country": {
                "id": 840,
                "iso2": "US",
                "iso3": "USA",
                "name": "United States of America",
                "currency": "$",
                "currency_iso": "USD"
            }
        }
    ],
    "first_page_url": "https://justbookr.com/api/v1/universities?page=1",
    "from": 1,
    "last_page": 1043,
    "last_page_url": "https://justbookr.com/api/v1/universities?page=1043",
    "next_page_url": "https://justbookr.com/api/v1/universities?page=2",
    "path": "https://justbookr.com/api/v1/universities",
    "per_page": "8",
    "prev_page_url": null,
    "to": 8,
    "total": 8343
}